TAR Course Analysis
…
Tokenizing the text  using the Tidy Text method unnest_tokens()  arranges the data into a Tidy format of one term per row. This makes removing standard stop words easy with an anti-join.

text_df <- data_frame(text = unlist(text_list), Article = 1:17)

text_df <- text_df %>% 
  unnest_tokens(word, text)

text_df %>% 
  anti_join(stop_words) %>% 
  count(word, sort = TRUE)

## Joining, by = "word"

## # A tibble: 3,918 x 2
##          word     n
##         <chr> <int>
##  1  documents   349
##  2     review   328
##  3     search   289
##  4   document   228
##  5     coding   217
##  6 predictive   208
##  7   training   205
##  8    machine   194
##  9       step   177
## 10  discovery   159
## # ... with 3,908 more rows
…
article_words <- text_df %>% 
  count(Article, word, sort = TRUE)

total_words <- article_words %>% 
  group_by(Article) %>% 
  summarise(total = sum(n))

article_words <- left_join(article_words, total_words)

## Joining, by = "Article"

article_words

## # A tibble: 13,356 x 4
##    Article  word     n total
##      <int> <chr> <int> <int>
##  1       1   the   524  7938
##  2       6   the   312  4417
##  3      14   the   310  5383
##  4       1    of   302  7938
##  5       9   the   253  4542
##  6       5   the   250  4592
##  7       1   and   195  7938
##  8       8   the   188  3479
##  9       1    to   182  7938
## 10      14    of   160  5383
## # ... with 13,346 more rows
…
